simulate_mics — simulate_mics • mic.sim
…
},
sd_vector = c("1" = 1, "2" = 1.05),
covariate_list = covariate_list,
covariate_effect_vector = covariate_effect_vector,
conc_limits_table = conc_limits_table,
scale = "log")
#> New names:
#> • `` -> `...1`
#> • `` -> `...2`
#> • `` -> `...3`
#> Joining with `by = join_by(covariate_2)`
#> Joining with `by = join_by(t, p, comp, x, sd, epsilon, covariate_1,
#> covariate_2, covariate_3, total_cov_effect, observed_value, low_cons,
#> high_cons)`
#> # A tibble: 300 × 17
#>        t p         comp      x    sd epsilon covariate_1 covariate_2 covariate_3
#>    <dbl> <list>    <chr> <dbl> <dbl>   <dbl>       <dbl> <chr>             <dbl>
#>  1 12.2  <dbl [2]> 1     -1.89  1     -0.350      0.363  b                  2.63
#>  2 10.7  <dbl [2]> 2      3.01  1.05   1.47       1.44   b                  4.15
#>  3  9.74 <dbl [2]> 2      3.01  1.05   0.179      1.08   b                  3.34
#>  4 11.4  <dbl [2]> 1     -1.98  1      0.704      0.140  b                  3.53
#>  5  2.40 <dbl [2]> 1     -3.46  1      0.608     -0.550  a                  3.81
#>  6 15.8  <dbl [2]> 1     -1.58  1     -0.533     -0.0287 a                  2.62
#>  7  8.44 <dbl [2]> 1     -2.37  1     -0.903      0.553  b                  1.78
#>  8  3.28 <dbl [2]> 1     -3.27  1      2.51      -0.692  a                  1.03
#>  9  4.06 <dbl [2]> 1     -3.12  1     -0.586      0.774  b                  3.53
#> 10 15.8  <dbl [2]> 2      3.02  1.05  -0.191      1.17   b                  4.82
#> # ℹ 290 more rows
#> # ℹ 8 more variables: total_cov_effect <dbl[,1]>, observed_value <dbl[,1]>,
#> #   tested_concentrations <list>, left_bound <dbl>, right_bound <dbl>,
#> #   indicator <dbl>, low_con <dbl>, high_con <dbl>
…
